hu\immutables\sensor\entity\BusinessObject.class
hu\immutables\sensor\dto\BusinessObjectDTO.class
hu\immutables\sensor\entity\LocalDateTimeConverter.class
hu\immutables\sensor\jpadao\DefaultMeasuremetDAO.class
hu\immutables\sensor\dao\MeasurementDAO.class
hu\immutables\sensor\dao\SensorDAO.class
hu\immutables\sensor\entity\Measurement.class
hu\immutables\sensor\jpadao\DefaultSensorDAO.class
hu\immutables\sensor\dto\MeasurementDTO.class
hu\immutables\sensor\dto\SensorDTO.class
hu\immutables\sensor\jpadao\JpaDefaultBaseDAO.class
hu\immutables\sensor\mapper\Mapper.class
hu\immutables\sensor\dao\BaseDAO.class
hu\immutables\sensor\entity\Sensor.class
hu\immutables\sensor\mapper\EntityMapper.class
